04:19:00
20-05-2018
25.052364833
25.052364833
25.052364833
25.052364833
25.052364833
25.052364833
25.052364833
25.052364833
25.052364833
25.052364833
25.052364833
25.052364833
25.052364833
25.052364833
25.052364833
25.052364833
25.052364833
25.052364833
25.052364833
25.052364833
25.052364833
25.052364833
25.052364833
25.052364833
25.052364833
25.052364833
25.052364833
25.052364833
25.052364833
25.052364833
25.052364833
25.052364833
25.052364833
25.052364833
100
0.0
0.0
0.0
0.0
0.0
0.0
0.0
0.0
0.0
0.0
0.0
0.0
0.0
0.0
0.0
0.0
0.0
0.0
0.0
0.0
0.0
0.0
0.0
0.0
0.0
0.00645675685713
0.00628560178543
0.00642570867901
0.00622412732547
0.00645675685713
4.0
5.2
5.2
0.0144283781949
0.0143883781949
0.0144347893424
0.0144236066071
0.0144283781949
2.2
2.2
2.2
1.0
1202.66080911
1202.66080911
