02:17:00
20-05-2018
25.0276031678
25.0276031678
25.0276031678
25.0276031678
25.0276031678
25.0276031678
25.0276031678
25.0276031678
25.0276031678
25.0276031678
25.0276031678
25.0276031678
25.0276031678
25.0276031678
25.0276031678
25.0276031678
25.0276031678
25.0276031678
25.0276031678
25.0276031678
25.0276031678
25.0276031678
25.0276031678
25.0276031678
25.0276031678
25.0276031678
25.0276031678
25.0276031678
25.0276031678
25.0276031678
25.0276031678
25.0276031678
25.0276031678
25.0276031678
100
0.0
0.0
0.0
0.0
0.0
0.0
0.0
0.0
0.0
0.0
0.0
0.0
0.0
0.0
0.0
0.0
0.0
0.0
0.0
0.0
0.0
0.0
0.0
0.0
0.0
0.00642247508073
0.0062500260187
0.00639097375299
0.00618862641007
0.00642247508073
4.0
5.2
5.2
0.0144244164122
0.0143844164122
0.0144308175189
0.0144196162213
0.0144244164122
2.2
2.2
2.2
1.0
1202.83847343
1202.83847343
