01:29:00
20-05-2018
25.0178608733
25.0178608733
25.0178608733
25.0178608733
25.0178608733
25.0178608733
25.0178608733
25.0178608733
25.0178608733
25.0178608733
25.0178608733
25.0178608733
25.0178608733
25.0178608733
25.0178608733
25.0178608733
25.0178608733
25.0178608733
25.0178608733
25.0178608733
25.0178608733
25.0178608733
25.0178608733
25.0178608733
25.0178608733
25.0178608733
25.0178608733
25.0178608733
25.0178608733
25.0178608733
25.0178608733
25.0178608733
25.0178608733
25.0178608733
100
0.0
0.0
0.0
0.0
0.0
0.0
0.0
0.0
0.0
0.0
0.0
0.0
0.0
0.0
0.0
0.0
0.0
0.0
0.0
0.0
0.0
0.0
0.0
0.0
0.0
0.0064089871687
0.00623602899572
0.00637730755259
0.00617465883679
0.0064089871687
4.0
5.2
5.2
0.0144228576714
0.0143828576714
0.0144292548276
0.0144180462268
0.0144228576714
2.2
2.2
2.2
1.0
1202.90837415
1202.90837415
