00:11:00
20-05-2018
25.0020296447
25.0020296447
25.0020296447
25.0020296447
25.0020296447
25.0020296447
25.0020296447
25.0020296447
25.0020296447
25.0020296447
25.0020296447
25.0020296447
25.0020296447
25.0020296447
25.0020296447
25.0020296447
25.0020296447
25.0020296447
25.0020296447
25.0020296447
25.0020296447
25.0020296447
25.0020296447
25.0020296447
25.0020296447
25.0020296447
25.0020296447
25.0020296447
25.0020296447
25.0020296447
25.0020296447
25.0020296447
25.0020296447
25.0020296447
100
0.0
0.0
0.0
0.0
0.0
0.0
0.0
0.0
0.0
0.0
0.0
0.0
0.0
0.0
0.0
0.0
0.0
0.0
0.0
0.0
0.0
0.0
0.0
0.0
0.0
0.00638706931166
0.00621328383339
0.00635509997694
0.00615196153023
0.00638706931166
4.0
5.2
5.2
0.0144203247508
0.0143803247508
0.0144267154875
0.0144154950191
0.0144203247508
2.2
2.2
2.2
1.0
1203.02196281
1203.02196281
