04:11:00
20-05-2018
25.0507411172
25.0507411172
25.0507411172
25.0507411172
25.0507411172
25.0507411172
25.0507411172
25.0507411172
25.0507411172
25.0507411172
25.0507411172
25.0507411172
25.0507411172
25.0507411172
25.0507411172
25.0507411172
25.0507411172
25.0507411172
25.0507411172
25.0507411172
25.0507411172
25.0507411172
25.0507411172
25.0507411172
25.0507411172
25.0507411172
25.0507411172
25.0507411172
25.0507411172
25.0507411172
25.0507411172
25.0507411172
25.0507411172
25.0507411172
100
0.0
0.0
0.0
0.0
0.0
0.0
0.0
0.0
0.0
0.0
0.0
0.0
0.0
0.0
0.0
0.0
0.0
0.0
0.0
0.0
0.0
0.0
0.0
0.0
0.0
0.0064545088718
0.00628326894827
0.00642343097894
0.00622179939659
0.0064545088718
4.0
5.2
5.2
0.0144281183624
0.0143881183624
0.0144345288514
0.0144233448987
0.0144281183624
2.2
2.2
2.2
1.0
1202.67245923
1202.67245923
