00:55:00
20-05-2018
25.0109600813
25.0109600813
25.0109600813
25.0109600813
25.0109600813
25.0109600813
25.0109600813
25.0109600813
25.0109600813
25.0109600813
25.0109600813
25.0109600813
25.0109600813
25.0109600813
25.0109600813
25.0109600813
25.0109600813
25.0109600813
25.0109600813
25.0109600813
25.0109600813
25.0109600813
25.0109600813
25.0109600813
25.0109600813
25.0109600813
25.0109600813
25.0109600813
25.0109600813
25.0109600813
25.0109600813
25.0109600813
25.0109600813
25.0109600813
100
0.0
0.0
0.0
0.0
0.0
0.0
0.0
0.0
0.0
0.0
0.0
0.0
0.0
0.0
0.0
0.0
0.0
0.0
0.0
0.0
0.0
0.0
0.0
0.0
0.0
0.00639943323101
0.00622611443778
0.00636762732731
0.00616476513906
0.00639943323101
4.0
5.2
5.2
0.014421753646
0.014381753646
0.0144281480041
0.0144169342306
0.014421753646
2.2
2.2
2.2
1.0
1202.95788716
1202.95788716
