03:57:00
20-05-2018
25.0478996146
25.0478996146
25.0478996146
25.0478996146
25.0478996146
25.0478996146
25.0478996146
25.0478996146
25.0478996146
25.0478996146
25.0478996146
25.0478996146
25.0478996146
25.0478996146
25.0478996146
25.0478996146
25.0478996146
25.0478996146
25.0478996146
25.0478996146
25.0478996146
25.0478996146
25.0478996146
25.0478996146
25.0478996146
25.0478996146
25.0478996146
25.0478996146
25.0478996146
25.0478996146
25.0478996146
25.0478996146
25.0478996146
25.0478996146
100
0.0
0.0
0.0
0.0
0.0
0.0
0.0
0.0
0.0
0.0
0.0
0.0
0.0
0.0
0.0
0.0
0.0
0.0
0.0
0.0
0.0
0.0
0.0
0.0
0.0
0.00645057489745
0.00627918648323
0.00641944500383
0.00621772552105
0.00645057489745
4.0
5.2
5.2
0.0144276637066
0.0143876637066
0.0144340730432
0.0144228869603
0.0144276637066
2.2
2.2
2.2
1.0
1202.69284694
1202.69284694
