02:35:00
20-05-2018
25.0312565282
25.0312565282
25.0312565282
25.0312565282
25.0312565282
25.0312565282
25.0312565282
25.0312565282
25.0312565282
25.0312565282
25.0312565282
25.0312565282
25.0312565282
25.0312565282
25.0312565282
25.0312565282
25.0312565282
25.0312565282
25.0312565282
25.0312565282
25.0312565282
25.0312565282
25.0312565282
25.0312565282
25.0312565282
25.0312565282
25.0312565282
25.0312565282
25.0312565282
25.0312565282
25.0312565282
25.0312565282
25.0312565282
25.0312565282
100
0.0
0.0
0.0
0.0
0.0
0.0
0.0
0.0
0.0
0.0
0.0
0.0
0.0
0.0
0.0
0.0
0.0
0.0
0.0
0.0
0.0
0.0
0.0
0.0
0.0
0.00642753304774
0.00625527490232
0.00639609857814
0.00619386425004
0.00642753304774
4.0
5.2
5.2
0.0144250009414
0.0143850009414
0.0144314035296
0.0144202049707
0.0144250009414
2.2
2.2
2.2
1.0
1202.81226066
1202.81226066
