05:07:00
20-05-2018
25.0621071275
25.0621071275
25.0621071275
25.0621071275
25.0621071275
25.0621071275
25.0621071275
25.0621071275
25.0621071275
25.0621071275
25.0621071275
25.0621071275
25.0621071275
25.0621071275
25.0621071275
25.0621071275
25.0621071275
25.0621071275
25.0621071275
25.0621071275
25.0621071275
25.0621071275
25.0621071275
25.0621071275
25.0621071275
25.0621071275
25.0621071275
25.0621071275
25.0621071275
25.0621071275
25.0621071275
25.0621071275
25.0621071275
25.0621071275
100
0.0
0.0
0.0
0.0
0.0
0.0
0.0
0.0
0.0
0.0
0.0
0.0
0.0
0.0
0.0
0.0
0.0
0.0
0.0
0.0
0.0
0.0
0.0
0.0
0.0
0.00647024476916
0.0062995988084
0.00643937487941
0.00623809489874
0.00647024476916
4.0
5.2
5.2
0.0144299369957
0.0143899369957
0.0144363520938
0.014425176662
0.0144299369957
2.2
2.2
2.2
1.0
1202.5909084
1202.5909084
