04:37:00
20-05-2018
25.0560181934
25.0560181934
25.0560181934
25.0560181934
25.0560181934
25.0560181934
25.0560181934
25.0560181934
25.0560181934
25.0560181934
25.0560181934
25.0560181934
25.0560181934
25.0560181934
25.0560181934
25.0560181934
25.0560181934
25.0560181934
25.0560181934
25.0560181934
25.0560181934
25.0560181934
25.0560181934
25.0560181934
25.0560181934
25.0560181934
25.0560181934
25.0560181934
25.0560181934
25.0560181934
25.0560181934
25.0560181934
25.0560181934
25.0560181934
100
0.0
0.0
0.0
0.0
0.0
0.0
0.0
0.0
0.0
0.0
0.0
0.0
0.0
0.0
0.0
0.0
0.0
0.0
0.0
0.0
0.0
0.0
0.0
0.0
0.0
0.00646181482414
0.00629085066904
0.00643083350416
0.00622936516544
0.00646181482414
4.0
5.2
5.2
0.0144289627444
0.0143889627444
0.0144353753733
0.0144241953768
0.0144289627444
2.2
2.2
2.2
1.0
1202.63459634
1202.63459634
