00:51:00
20-05-2018
25.0101482234
25.0101482234
25.0101482234
25.0101482234
25.0101482234
25.0101482234
25.0101482234
25.0101482234
25.0101482234
25.0101482234
25.0101482234
25.0101482234
25.0101482234
25.0101482234
25.0101482234
25.0101482234
25.0101482234
25.0101482234
25.0101482234
25.0101482234
25.0101482234
25.0101482234
25.0101482234
25.0101482234
25.0101482234
25.0101482234
25.0101482234
25.0101482234
25.0101482234
25.0101482234
25.0101482234
25.0101482234
25.0101482234
25.0101482234
100
0.0
0.0
0.0
0.0
0.0
0.0
0.0
0.0
0.0
0.0
0.0
0.0
0.0
0.0
0.0
0.0
0.0
0.0
0.0
0.0
0.0
0.0
0.0
0.0
0.0
0.00639830923835
0.0062249480192
0.00636648847728
0.00616360117462
0.00639830923835
4.0
5.2
5.2
0.0144216237543
0.0143816237543
0.0144280177833
0.0144168034011
0.0144216237543
2.2
2.2
2.2
1.0
1202.96371221
1202.96371221
