05:21:00
20-05-2018
25.06494863
25.06494863
25.06494863
25.06494863
25.06494863
25.06494863
25.06494863
25.06494863
25.06494863
25.06494863
25.06494863
25.06494863
25.06494863
25.06494863
25.06494863
25.06494863
25.06494863
25.06494863
25.06494863
25.06494863
25.06494863
25.06494863
25.06494863
25.06494863
25.06494863
25.06494863
25.06494863
25.06494863
25.06494863
25.06494863
25.06494863
25.06494863
25.06494863
25.06494863
100
0.0
0.0
0.0
0.0
0.0
0.0
0.0
0.0
0.0
0.0
0.0
0.0
0.0
0.0
0.0
0.0
0.0
0.0
0.0
0.0
0.0
0.0
0.0
0.0
0.0
0.0064741787435
0.00630368127344
0.00644336085453
0.00624216877428
0.0064741787435
4.0
5.2
5.2
0.0144303915861
0.0143903915861
0.0144368078364
0.0144256345345
0.0144303915861
2.2
2.2
2.2
1.0
1202.57052069
1202.57052069
