05:27:00
20-05-2018
25.0661664168
25.0661664168
25.0661664168
25.0661664168
25.0661664168
25.0661664168
25.0661664168
25.0661664168
25.0661664168
25.0661664168
25.0661664168
25.0661664168
25.0661664168
25.0661664168
25.0661664168
25.0661664168
25.0661664168
25.0661664168
25.0661664168
25.0661664168
25.0661664168
25.0661664168
25.0661664168
25.0661664168
25.0661664168
25.0661664168
25.0661664168
25.0661664168
25.0661664168
25.0661664168
25.0661664168
25.0661664168
25.0661664168
25.0661664168
100
0.0
0.0
0.0
0.0
0.0
0.0
0.0
0.0
0.0
0.0
0.0
0.0
0.0
0.0
0.0
0.0
0.0
0.0
0.0
0.0
0.0
0.0
0.0
0.0
0.0
0.00647586473251
0.00630543090131
0.00644506912958
0.00624391472094
0.00647586473251
4.0
5.2
5.2
0.0144305864948
0.0143905864948
0.0144370032389
0.0144258308503
0.0144305864948
2.2
2.2
2.2
1.0
1202.5617831
1202.5617831
