03:35:00
20-05-2018
25.0434343963
25.0434343963
25.0434343963
25.0434343963
25.0434343963
25.0434343963
25.0434343963
25.0434343963
25.0434343963
25.0434343963
25.0434343963
25.0434343963
25.0434343963
25.0434343963
25.0434343963
25.0434343963
25.0434343963
25.0434343963
25.0434343963
25.0434343963
25.0434343963
25.0434343963
25.0434343963
25.0434343963
25.0434343963
25.0434343963
25.0434343963
25.0434343963
25.0434343963
25.0434343963
25.0434343963
25.0434343963
25.0434343963
25.0434343963
100
0.0
0.0
0.0
0.0
0.0
0.0
0.0
0.0
0.0
0.0
0.0
0.0
0.0
0.0
0.0
0.0
0.0
0.0
0.0
0.0
0.0
0.0
0.0
0.0
0.0
0.00644439293777
0.00627277118103
0.00641318132864
0.00621132371663
0.00644439293777
4.0
5.2
5.2
0.0144269493492
0.0143869493492
0.0144333568753
0.0144221674454
0.0144269493492
2.2
2.2
2.2
1.0
1202.72488477
1202.72488477
