02:51:00
20-05-2018
25.0345039597
25.0345039597
25.0345039597
25.0345039597
25.0345039597
25.0345039597
25.0345039597
25.0345039597
25.0345039597
25.0345039597
25.0345039597
25.0345039597
25.0345039597
25.0345039597
25.0345039597
25.0345039597
25.0345039597
25.0345039597
25.0345039597
25.0345039597
25.0345039597
25.0345039597
25.0345039597
25.0345039597
25.0345039597
25.0345039597
25.0345039597
25.0345039597
25.0345039597
25.0345039597
25.0345039597
25.0345039597
25.0345039597
25.0345039597
100
0.0
0.0
0.0
0.0
0.0
0.0
0.0
0.0
0.0
0.0
0.0
0.0
0.0
0.0
0.0
0.0
0.0
0.0
0.0
0.0
0.0
0.0
0.0
0.0
0.0
0.00643202901842
0.00625994057664
0.00640065397828
0.0061985201078
0.00643202901842
4.0
5.2
5.2
0.014425520495
0.014385520495
0.0144319243999
0.0144207282753
0.014425520495
2.2
2.2
2.2
1.0
1202.78896042
1202.78896042
