01:23:00
20-05-2018
25.0166430864
25.0166430864
25.0166430864
25.0166430864
25.0166430864
25.0166430864
25.0166430864
25.0166430864
25.0166430864
25.0166430864
25.0166430864
25.0166430864
25.0166430864
25.0166430864
25.0166430864
25.0166430864
25.0166430864
25.0166430864
25.0166430864
25.0166430864
25.0166430864
25.0166430864
25.0166430864
25.0166430864
25.0166430864
25.0166430864
25.0166430864
25.0166430864
25.0166430864
25.0166430864
25.0166430864
25.0166430864
25.0166430864
25.0166430864
100
0.0
0.0
0.0
0.0
0.0
0.0
0.0
0.0
0.0
0.0
0.0
0.0
0.0
0.0
0.0
0.0
0.0
0.0
0.0
0.0
0.0
0.0
0.0
0.0
0.0
0.0064073011797
0.00623427936785
0.00637559927754
0.00617291289014
0.0064073011797
4.0
5.2
5.2
0.0144226628042
0.0143826628042
0.0144290594665
0.0144178499527
0.0144226628042
2.2
2.2
2.2
1.0
1202.91711174
1202.91711174
