02:09:00
20-05-2018
25.025979452
25.025979452
25.025979452
25.025979452
25.025979452
25.025979452
25.025979452
25.025979452
25.025979452
25.025979452
25.025979452
25.025979452
25.025979452
25.025979452
25.025979452
25.025979452
25.025979452
25.025979452
25.025979452
25.025979452
25.025979452
25.025979452
25.025979452
25.025979452
25.025979452
25.025979452
25.025979452
25.025979452
25.025979452
25.025979452
25.025979452
25.025979452
25.025979452
25.025979452
100
0.0
0.0
0.0
0.0
0.0
0.0
0.0
0.0
0.0
0.0
0.0
0.0
0.0
0.0
0.0
0.0
0.0
0.0
0.0
0.0
0.0
0.0
0.0
0.0
0.0
0.00642022709539
0.00624769318154
0.00638869605293
0.00618629848119
0.00642022709539
4.0
5.2
5.2
0.0144241565883
0.0143841565883
0.0144305570365
0.0144193545215
0.0144241565883
2.2
2.2
2.2
1.0
1202.85012355
1202.85012355
