02:19:00
20-05-2018
25.0280090967
25.0280090967
25.0280090967
25.0280090967
25.0280090967
25.0280090967
25.0280090967
25.0280090967
25.0280090967
25.0280090967
25.0280090967
25.0280090967
25.0280090967
25.0280090967
25.0280090967
25.0280090967
25.0280090967
25.0280090967
25.0280090967
25.0280090967
25.0280090967
25.0280090967
25.0280090967
25.0280090967
25.0280090967
25.0280090967
25.0280090967
25.0280090967
25.0280090967
25.0280090967
25.0280090967
25.0280090967
25.0280090967
25.0280090967
100
0.0
0.0
0.0
0.0
0.0
0.0
0.0
0.0
0.0
0.0
0.0
0.0
0.0
0.0
0.0
0.0
0.0
0.0
0.0
0.0
0.0
0.0
0.0
0.0
0.0
0.00642303707706
0.00625060922799
0.00639154317801
0.00618920839229
0.00642303707706
4.0
5.2
5.2
0.0144244813615
0.0143844813615
0.0144308826328
0.0144196816395
0.0144244813615
2.2
2.2
2.2
1.0
1202.8355609
1202.8355609
