01:51:00
20-05-2018
25.0223260916
25.0223260916
25.0223260916
25.0223260916
25.0223260916
25.0223260916
25.0223260916
25.0223260916
25.0223260916
25.0223260916
25.0223260916
25.0223260916
25.0223260916
25.0223260916
25.0223260916
25.0223260916
25.0223260916
25.0223260916
25.0223260916
25.0223260916
25.0223260916
25.0223260916
25.0223260916
25.0223260916
25.0223260916
25.0223260916
25.0223260916
25.0223260916
25.0223260916
25.0223260916
25.0223260916
25.0223260916
25.0223260916
25.0223260916
100
0.0
0.0
0.0
0.0
0.0
0.0
0.0
0.0
0.0
0.0
0.0
0.0
0.0
0.0
0.0
0.0
0.0
0.0
0.0
0.0
0.0
0.0
0.0
0.0
0.0
0.00641516912838
0.00624244429792
0.00638357122778
0.00618106064121
0.00641516912838
4.0
5.2
5.2
0.0144235720855
0.0143835720855
0.0144299710523
0.0144187657988
0.0144235720855
2.2
2.2
2.2
1.0
1202.87633632
1202.87633632
