02:23:00
20-05-2018
25.0288209546
25.0288209546
25.0288209546
25.0288209546
25.0288209546
25.0288209546
25.0288209546
25.0288209546
25.0288209546
25.0288209546
25.0288209546
25.0288209546
25.0288209546
25.0288209546
25.0288209546
25.0288209546
25.0288209546
25.0288209546
25.0288209546
25.0288209546
25.0288209546
25.0288209546
25.0288209546
25.0288209546
25.0288209546
25.0288209546
25.0288209546
25.0288209546
25.0288209546
25.0288209546
25.0288209546
25.0288209546
25.0288209546
25.0288209546
100
0.0
0.0
0.0
0.0
0.0
0.0
0.0
0.0
0.0
0.0
0.0
0.0
0.0
0.0
0.0
0.0
0.0
0.0
0.0
0.0
0.0
0.0
0.0
0.0
0.0
0.00642416106973
0.00625177564657
0.00639268202804
0.00619037235673
0.00642416106973
4.0
5.2
5.2
0.0144246112475
0.0143846112475
0.014431012848
0.0144198124633
0.0144246112475
2.2
2.2
2.2
1.0
1202.82973584
1202.82973584
